<!--
<table vertical-align="top" border="1";>
	<?php while($row = mysqli_fetch_array($result)) { ?>
		<tr border=1>
			<td width="200" valign='top'>
				<div>Boxnummer: <?php echo $row['boxnummer']; ?> </div>
						<br>
					<?php echo $row['naam']; ?>
						<br> 
					<?php echo $row['status']; ?>
			</td>
	
			<td border=1 valign='top'>
					<img src="script/image/<?php echo $row['status'] ?>.gif" border=2>
						<br>
					<?php $row['status']; ?>
			</td>

			<td width="250" border=1>
				<?php echo $row['Profiel']; ?> 
			</td>
		</tr>
	<?php } ?>
</table>
-->